{
  "stats": {
    "suites": 5,
    "tests": 19,
    "passes": 18,
    "pending": 0,
    "failures": 1,
    "start": "2023-10-23T05:01:46.165Z",
    "end": "2023-10-23T05:05:08.182Z",
    "duration": 202017,
    "testsRegistered": 19,
    "passPercent": 94.7,
    "pendingPercent": 0,
    "other": 0,
    "hasOther": false,
    "skipped": 0,
    "hasSkipped": false,
    "passPercentClass": "success",
    "pendingPercentClass": "danger"
  },
  "suites": {
    "uuid": "6a8c2005-b739-4fb3-a157-55ba38f007f0",
    "title": "",
    "fullFile": "",
    "file": "",
    "beforeHooks": [],
    "afterHooks": [],
    "tests": [],
    "suites": [
      {
        "uuid": "2d6f8e04-ccf3-4dff-90d6-0dbb77cff9b0",
        "title": "OMDB Movie List",
        "fullFile": "C:\\Users\\Lenovo\\IdeaProjects\\MochaAPIAutomation\\lib\\test\\movie-list-test-renew.js",
        "file": "\\lib\\test\\movie-list-test-renew.js",
        "beforeHooks": [],
        "afterHooks": [],
        "tests": [
          {
            "title": "@get As a User, I want to be able to get OMDB Movie list",
            "fullTitle": "OMDB Movie List @get As a User, I want to be able to get OMDB Movie list",
            "timedOut": false,
            "duration": 642,
            "state": "passed",
            "speed": "slow",
            "pass": true,
            "fail": false,
            "pending": false,
            "code": "const response = await page.getMovieList(testDataMovie.apiKey, testDataMovie.keySearch);\nassert(response.status).to.equal(responseCode.successOk);",
            "err": {},
            "isRoot": false,
            "uuid": "35a04935-f1a9-451b-8009-b5d513ced935",
            "isHook": false,
            "skipped": false
          },
          {
            "title": "@get As a User, I should got error message when I send request without key of search",
            "fullTitle": "OMDB Movie List @get As a User, I should got error message when I send request without key of search",
            "timedOut": false,
            "duration": 403,
            "state": "passed",
            "speed": "slow",
            "pass": true,
            "fail": false,
            "pending": false,
            "code": "const response = await page.getMovieList(testDataMovie.apiKey, '');\nassert(response.status).to.equal(responseCode.successOk, response.body.Error);\nassert(response.body.Response).to.equal(testDataMovie.responseFalse);\nassert(response.body.Error).to.equal(testDataMovie.responseIncorrectIMDbID);",
            "err": {},
            "isRoot": false,
            "uuid": "7ee7c15c-b563-405c-9f57-323091fd20d2",
            "isHook": false,
            "skipped": false
          },
          {
            "title": "@get As a User, I should got error 401 when I send request with invalid API Key",
            "fullTitle": "OMDB Movie List @get As a User, I should got error 401 when I send request with invalid API Key",
            "timedOut": false,
            "duration": 1854,
            "state": "passed",
            "speed": "slow",
            "pass": true,
            "fail": false,
            "pending": false,
            "code": "const response = await page.getMovieList(testDataMovie.invalidAPIKey, testDataMovie.keySearch);\nassert(response.status).to.equal(responseCode.failedUnauthorized.codeNumber, response.body.Error);\nassert(response.body.Response).to.equal(testDataMovie.responseFalse);\nassert(response.body.Error).to.equal(testDataMovie.responseInvalidAPIKey);",
            "err": {},
            "isRoot": false,
            "uuid": "a656b01a-75a9-471d-8f00-a56116aad64a",
            "isHook": false,
            "skipped": false
          }
        ],
        "suites": [],
        "passes": [
          "35a04935-f1a9-451b-8009-b5d513ced935",
          "7ee7c15c-b563-405c-9f57-323091fd20d2",
          "a656b01a-75a9-471d-8f00-a56116aad64a"
        ],
        "failures": [],
        "pending": [],
        "skipped": [],
        "duration": 2899,
        "root": false,
        "rootEmpty": false,
        "_timeout": 180000
      },
      {
        "uuid": "e196e1a7-dd6a-4c95-8a45-45a9467cae52",
        "title": "OMDB Movie List",
        "fullFile": "C:\\Users\\Lenovo\\IdeaProjects\\MochaAPIAutomation\\lib\\test\\movie-list-test.js",
        "file": "\\lib\\test\\movie-list-test.js",
        "beforeHooks": [],
        "afterHooks": [],
        "tests": [
          {
            "title": "@get As a User, I want to be able to get OMDB Movie list",
            "fullTitle": "OMDB Movie List @get As a User, I want to be able to get OMDB Movie list",
            "timedOut": false,
            "duration": 292,
            "state": "passed",
            "speed": "slow",
            "pass": true,
            "fail": false,
            "pending": false,
            "code": "const response = await page.getMovieList(apiKey, keySearch);\nassert(response.status).to.equal(200);",
            "err": {},
            "isRoot": false,
            "uuid": "8bf0e1bf-520b-4cfd-bc86-054b6fbfe8b1",
            "isHook": false,
            "skipped": false
          },
          {
            "title": "@get As a User, I should got error message when I send request without key of search",
            "fullTitle": "OMDB Movie List @get As a User, I should got error message when I send request without key of search",
            "timedOut": false,
            "duration": 314,
            "state": "passed",
            "speed": "slow",
            "pass": true,
            "fail": false,
            "pending": false,
            "code": "const response = await page.getMovieList(apiKey, '');\nassert(response.status).to.equal(200, response.body.Error);\nassert(response.body.Response).to.equal('False');\nassert(response.body.Error).to.equal('Incorrect IMDb ID.');",
            "err": {},
            "isRoot": false,
            "uuid": "3d118265-8381-4b66-97e0-357e3ab244f3",
            "isHook": false,
            "skipped": false
          },
          {
            "title": "@get As a User, I should got error 401 when I send request with invalid API Key",
            "fullTitle": "OMDB Movie List @get As a User, I should got error 401 when I send request with invalid API Key",
            "timedOut": false,
            "duration": 570,
            "state": "passed",
            "speed": "slow",
            "pass": true,
            "fail": false,
            "pending": false,
            "code": "const response = await page.getMovieList(invalidApiKey, keySearch);\nassert(response.status).to.equal(401, response.body.Error);\nassert(response.body.Response).to.equal('False');\nassert(response.body.Error).to.equal('Invalid API key!');",
            "err": {},
            "isRoot": false,
            "uuid": "38a1a1f0-b63c-467d-a3a7-2e7d97f7063c",
            "isHook": false,
            "skipped": false
          }
        ],
        "suites": [],
        "passes": [
          "8bf0e1bf-520b-4cfd-bc86-054b6fbfe8b1",
          "3d118265-8381-4b66-97e0-357e3ab244f3",
          "38a1a1f0-b63c-467d-a3a7-2e7d97f7063c"
        ],
        "failures": [],
        "pending": [],
        "skipped": [],
        "duration": 1176,
        "root": false,
        "rootEmpty": false,
        "_timeout": 180000
      },
      {
        "uuid": "53023b5b-90e0-41a6-8d88-e9d5e0354e8f",
        "title": "Predict Age By Name",
        "fullFile": "C:\\Users\\Lenovo\\IdeaProjects\\MochaAPIAutomation\\lib\\test\\predict-age-test.js",
        "file": "\\lib\\test\\predict-age-test.js",
        "beforeHooks": [],
        "afterHooks": [],
        "tests": [
          {
            "title": "@get As a User, I want to know predict age by name Lisa",
            "fullTitle": "Predict Age By Name @get As a User, I want to know predict age by name Lisa",
            "timedOut": false,
            "duration": 1883,
            "state": "passed",
            "speed": "slow",
            "pass": true,
            "fail": false,
            "pending": false,
            "code": "const response = await endpointPredictAge.getAgeByName(testDataPredictAge.nameLisa);\nexpect(response.status).to.equal(responseCode.successOk, JSON.stringify(response.body));\nexpect(response.body).to.be.jsonSchema(schemaPredictAge.successGetPredictAgeByNameSchema);\nexpect(response.body.name).to.equal(testDataPredictAge.nameLisa.name, testDataPredictAge.errorNameNotMatch);",
            "err": {},
            "isRoot": false,
            "uuid": "3af0dc8d-46ba-4113-8902-30e5311e4af8",
            "isHook": false,
            "skipped": false
          },
          {
            "title": "@get As a User, I want to know predict age by name Leo",
            "fullTitle": "Predict Age By Name @get As a User, I want to know predict age by name Leo",
            "timedOut": false,
            "duration": 1325,
            "state": "passed",
            "speed": "slow",
            "pass": true,
            "fail": false,
            "pending": false,
            "code": "const response = await endpointPredictAge.getAgeByName(testDataPredictAge.nameLeo);\nexpect(response.status).to.equal(responseCode.successOk, JSON.stringify(response.body));\nexpect(response.body).to.be.jsonSchema(schemaPredictAge.successGetPredictAgeByNameSchema);\nexpect(response.body.name).to.equal(testDataPredictAge.nameLeo.name, testDataPredictAge.errorNameNotMatch);",
            "err": {},
            "isRoot": false,
            "uuid": "2d75900c-4522-4de6-a5f8-cf274644278e",
            "isHook": false,
            "skipped": false
          },
          {
            "title": "@get As a User, I want to know predict age by name Nunu",
            "fullTitle": "Predict Age By Name @get As a User, I want to know predict age by name Nunu",
            "timedOut": false,
            "duration": 2351,
            "state": "passed",
            "speed": "slow",
            "pass": true,
            "fail": false,
            "pending": false,
            "code": "const response = await endpointPredictAge.getAgeByName(testDataPredictAge.nameNunu);\nexpect(response.status).to.equal(responseCode.successOk, JSON.stringify(response.body));\nexpect(response.body).to.be.jsonSchema(schemaPredictAge.successGetPredictAgeByNameSchema);\nexpect(response.body.name).to.equal(testDataPredictAge.nameNunu.name, testDataPredictAge.errorNameNotMatch);",
            "err": {},
            "isRoot": false,
            "uuid": "9e0d9b53-c701-462c-9e85-feb9ef6ce511",
            "isHook": false,
            "skipped": false
          },
          {
            "title": "@get As a User, I want to know predict age by name Calista",
            "fullTitle": "Predict Age By Name @get As a User, I want to know predict age by name Calista",
            "timedOut": false,
            "duration": 1323,
            "state": "passed",
            "speed": "slow",
            "pass": true,
            "fail": false,
            "pending": false,
            "code": "const response = await endpointPredictAge.getAgeByName(testDataPredictAge.nameCalista);\nexpect(response.status).to.equal(responseCode.successOk, JSON.stringify(response.body));\nexpect(response.body).to.be.jsonSchema(schemaPredictAge.successGetPredictAgeByNameSchema);\nexpect(response.body.name).to.equal(testDataPredictAge.nameCalista.name, testDataPredictAge.errorNameNotMatch);",
            "err": {},
            "isRoot": false,
            "uuid": "a745db0d-4277-4414-9711-5c00de88498b",
            "isHook": false,
            "skipped": false
          }
        ],
        "suites": [],
        "passes": [
          "3af0dc8d-46ba-4113-8902-30e5311e4af8",
          "2d75900c-4522-4de6-a5f8-cf274644278e",
          "9e0d9b53-c701-462c-9e85-feb9ef6ce511",
          "a745db0d-4277-4414-9711-5c00de88498b"
        ],
        "failures": [],
        "pending": [],
        "skipped": [],
        "duration": 6882,
        "root": false,
        "rootEmpty": false,
        "_timeout": 180000
      },
      {
        "uuid": "1550e9d1-1201-4256-8f9e-a85e26701d67",
        "title": "All about product",
        "fullFile": "C:\\Users\\Lenovo\\IdeaProjects\\MochaAPIAutomation\\lib\\test\\product-test.js",
        "file": "\\lib\\test\\product-test.js",
        "beforeHooks": [],
        "afterHooks": [],
        "tests": [
          {
            "title": "@get As a User, I want to be able to view all product list",
            "fullTitle": "All about product @get As a User, I want to be able to view all product list",
            "timedOut": false,
            "duration": 1525,
            "state": "passed",
            "speed": "slow",
            "pass": true,
            "fail": false,
            "pending": false,
            "code": "const response = await endpointProduct.getProductList();\nexpect(response.status).to.equal(responseCode.successOk, JSON.stringify(response.body));\nexpect(response.body).to.be.jsonSchema(schemaProduct.successGetListProductsSchema);",
            "err": {},
            "isRoot": false,
            "uuid": "a46b88f5-7d06-4097-ae47-436dc51b3820",
            "isHook": false,
            "skipped": false
          },
          {
            "title": "@get As a User, I want to be able to view specific product",
            "fullTitle": "All about product @get As a User, I want to be able to view specific product",
            "timedOut": false,
            "duration": 1347,
            "state": "passed",
            "speed": "slow",
            "pass": true,
            "fail": false,
            "pending": false,
            "code": "const response = await endpointProduct.getSingleProduct();\nexpect(response.status).to.equal(responseCode.successOk, JSON.stringify(response.body));\nexpect(response.body).to.be.jsonSchema(schemaProduct.successGetSingleProductSchema);",
            "err": {},
            "isRoot": false,
            "uuid": "25d51ba1-68d8-4a1a-85d3-b7d9c7793614",
            "isHook": false,
            "skipped": false
          },
          {
            "title": "@get As a User, I want to be able to add new product",
            "fullTitle": "All about product @get As a User, I want to be able to add new product",
            "timedOut": false,
            "duration": 609,
            "state": "passed",
            "speed": "slow",
            "pass": true,
            "fail": false,
            "pending": false,
            "code": "const response = await endpointProduct.addNewProduct(testDataProduct.addNewProduct);\nexpect(response.status).to.equal(responseCode.successOk, JSON.stringify(response.body));\nexpect(response.body).to.be.jsonSchema(schemaProduct.successAddProductSchema);\nexpect(response.body.title).to.equal(testDataProduct.addNewProduct.title, JSON.stringify(response.body));\nexpect(response.body.price).to.equal(testDataProduct.addNewProduct.price, JSON.stringify(response.body));\nexpect(response.body.description).to.equal(testDataProduct.addNewProduct.description, JSON.stringify(response.body));\nexpect(response.body.image).to.equal(testDataProduct.addNewProduct.image, JSON.stringify(response.body));\nexpect(response.body.category).to.equal(testDataProduct.addNewProduct.category, JSON.stringify(response.body));",
            "err": {},
            "isRoot": false,
            "uuid": "da27f715-9ffa-48a3-905e-3b1187c76882",
            "isHook": false,
            "skipped": false
          },
          {
            "title": "@get As a User, I want to be able to update product",
            "fullTitle": "All about product @get As a User, I want to be able to update product",
            "timedOut": false,
            "duration": 1023,
            "state": "passed",
            "speed": "slow",
            "pass": true,
            "fail": false,
            "pending": false,
            "code": "const response = await endpointProduct.updateProduct(testDataProduct.updateProduct);\nexpect(response.status).to.equal(responseCode.successOk, JSON.stringify(response.body));\nexpect(response.body).to.be.jsonSchema(schemaProduct.successAddProductSchema);\nexpect(response.body.title).to.equal(testDataProduct.updateProduct.title, JSON.stringify(response.body));\nexpect(response.body.price).to.equal(testDataProduct.updateProduct.price, JSON.stringify(response.body));\nexpect(response.body.description).to.equal(testDataProduct.updateProduct.description, JSON.stringify(response.body));\nexpect(response.body.image).to.equal(testDataProduct.updateProduct.image, JSON.stringify(response.body));\nexpect(response.body.category).to.equal(testDataProduct.updateProduct.category, JSON.stringify(response.body));",
            "err": {},
            "isRoot": false,
            "uuid": "25a7e0f8-84be-4d15-ad4b-c274e84da1a7",
            "isHook": false,
            "skipped": false
          },
          {
            "title": "@get As a User, I want to be able to update partial information product",
            "fullTitle": "All about product @get As a User, I want to be able to update partial information product",
            "timedOut": false,
            "duration": 1233,
            "state": "passed",
            "speed": "slow",
            "pass": true,
            "fail": false,
            "pending": false,
            "code": "const response = await endpointProduct.patchProduct(testDataProduct.patchProduct);\nexpect(response.status).to.equal(responseCode.successOk, JSON.stringify(response.body));\nexpect(response.body).to.be.jsonSchema(schemaProduct.successAddProductSchema);\nexpect(response.body.title).to.equal(testDataProduct.patchProduct.title, JSON.stringify(response.body));\nexpect(response.body.price).to.equal(testDataProduct.patchProduct.price, JSON.stringify(response.body));\nexpect(response.body.description).to.equal(testDataProduct.patchProduct.description, JSON.stringify(response.body));\nexpect(response.body.image).to.equal(testDataProduct.patchProduct.image, JSON.stringify(response.body));\nexpect(response.body.category).to.equal(testDataProduct.patchProduct.category, JSON.stringify(response.body));",
            "err": {},
            "isRoot": false,
            "uuid": "6c6d92e7-a4a8-4c78-88c9-4274dd7cc9ba",
            "isHook": false,
            "skipped": false
          },
          {
            "title": "@get As a User, I want to be able to delete product",
            "fullTitle": "All about product @get As a User, I want to be able to delete product",
            "timedOut": false,
            "duration": 1223,
            "state": "passed",
            "speed": "slow",
            "pass": true,
            "fail": false,
            "pending": false,
            "code": "const response = await endpointProduct.deleteProduct();\nexpect(response.status).to.equal(responseCode.successOk, JSON.stringify(response.body));\nexpect(response.body).to.be.jsonSchema(schemaProduct.successGetSingleProductSchema);",
            "err": {},
            "isRoot": false,
            "uuid": "2ef6357e-c5a3-4587-97df-eeb2ffc829a8",
            "isHook": false,
            "skipped": false
          },
          {
            "title": "@get As a User, I want to be able to sorting product",
            "fullTitle": "All about product @get As a User, I want to be able to sorting product",
            "timedOut": false,
            "duration": 1229,
            "state": "passed",
            "speed": "slow",
            "pass": true,
            "fail": false,
            "pending": false,
            "code": "const response = await endpointProduct.sortProduct(testDataProduct.sortingProduct);\nexpect(response.status).to.equal(responseCode.successOk, JSON.stringify(response.body));\nexpect(response.body).to.be.jsonSchema(schemaProduct.successGetListProductsSchema);",
            "err": {},
            "isRoot": false,
            "uuid": "66a4df01-c408-4699-8c42-5abc65a80359",
            "isHook": false,
            "skipped": false
          }
        ],
        "suites": [],
        "passes": [
          "a46b88f5-7d06-4097-ae47-436dc51b3820",
          "25d51ba1-68d8-4a1a-85d3-b7d9c7793614",
          "da27f715-9ffa-48a3-905e-3b1187c76882",
          "25a7e0f8-84be-4d15-ad4b-c274e84da1a7",
          "6c6d92e7-a4a8-4c78-88c9-4274dd7cc9ba",
          "2ef6357e-c5a3-4587-97df-eeb2ffc829a8",
          "66a4df01-c408-4699-8c42-5abc65a80359"
        ],
        "failures": [],
        "pending": [],
        "skipped": [],
        "duration": 8189,
        "root": false,
        "rootEmpty": false,
        "_timeout": 180000
      },
      {
        "uuid": "b928c8e5-f0cc-49d7-be36-85e5d0cfdd2e",
        "title": "Public API List",
        "fullFile": "C:\\Users\\Lenovo\\IdeaProjects\\MochaAPIAutomation\\lib\\test\\public-api-list-test.js",
        "file": "\\lib\\test\\public-api-list-test.js",
        "beforeHooks": [],
        "afterHooks": [],
        "tests": [
          {
            "title": "@get As a User, I want to be able to get Public API list",
            "fullTitle": "Public API List @get As a User, I want to be able to get Public API list",
            "timedOut": false,
            "duration": 2802,
            "state": "passed",
            "speed": "slow",
            "pass": true,
            "fail": false,
            "pending": false,
            "code": "const response = await endpointPublicApi.getPublicAPIList();\nexpect(response.status).to.equal(responseCode.successOk, JSON.stringify(response.body));\nexpect(response.body).to.be.jsonSchema(schemaPublicApi.successGetListPublicAPISchema);",
            "err": {},
            "isRoot": false,
            "uuid": "29dc1b3c-0431-4266-bed7-87d679095dc5",
            "isHook": false,
            "skipped": false
          },
          {
            "title": "@get As a User, I should know the count",
            "fullTitle": "Public API List @get As a User, I should know the count",
            "timedOut": true,
            "duration": 180034,
            "state": "failed",
            "pass": false,
            "fail": true,
            "pending": false,
            "code": "const response = await endpointPublicApi.getPublicAPIList();\nexpect(response.status).to.equal(responseCode.successOk, JSON.stringify(response.body));\nexpect(response.body.count).to.equal(testDataPublicApi.count, testDataPublicApi.messageUnmatchedCount);",
            "err": {
              "message": "Error: Timeout of 180000ms exceeded. For async tests and hooks, ensure \"done()\" is called; if returning a Promise, ensure it resolves. (C:\\Users\\Lenovo\\IdeaProjects\\MochaAPIAutomation\\lib\\test\\public-api-list-test.js)",
              "estack": "Error: Timeout of 180000ms exceeded. For async tests and hooks, ensure \"done()\" is called; if returning a Promise, ensure it resolves. (C:\\Users\\Lenovo\\IdeaProjects\\MochaAPIAutomation\\lib\\test\\public-api-list-test.js)\n    at listOnTimeout (node:internal/timers:573:17)\n    at process.processTimers (node:internal/timers:514:7)"
            },
            "isRoot": false,
            "uuid": "3baf7b46-95f5-4469-b638-990ba1418502",
            "isHook": false,
            "skipped": false
          }
        ],
        "suites": [],
        "passes": [
          "29dc1b3c-0431-4266-bed7-87d679095dc5"
        ],
        "failures": [
          "3baf7b46-95f5-4469-b638-990ba1418502"
        ],
        "pending": [],
        "skipped": [],
        "duration": 182836,
        "root": false,
        "rootEmpty": false,
        "_timeout": 180000
      }
    ],
    "passes": [],
    "failures": [],
    "pending": [],
    "skipped": [],
    "duration": 0,
    "root": true,
    "rootEmpty": true,
    "_timeout": 180000
  },
  "copyrightYear": 2023
}